; Engine configuration file.
; It's best edited using the editor UI and not directly,
; since the parameters that go here are not all obvious.
;
; Format:
;   [section] ; section goes between []
;   param=value ; assign values to parameters

config_version=4

_global_script_classes=[  ]
_global_script_class_icons={

}

[application]

config/name="Platformer Robo"
run/main_scene="res://Scene/GUI/Menu/Menu.tscn"
config/icon="res://icon.png"

[autoload]

global="*res://Script/global.gd"

[display]

window/size/height=704

[rendering]

environment/default_clear_color=Color( 0.188235, 0.235294, 0.290196, 1 )
environment/default_environment="res://default_env.tres"
